Reveal the stories behind those Likert-type data | Data modelling to develop ...
…
DD$Latent_5

  MR5 loading
1 x17   0.667
2 x18   0.527
3 x19   0.592
4 x07   0.417
5 x09   0.403

DD$Latent_frame

# A tibble: 103 × 5
     MR1   MR2   MR3   MR4   MR5
   <dbl> <dbl> <dbl> <dbl> <dbl>
 1  16.7  6.28  2.99 11.2  10.4 
 2  18.6  6.28  2.99  9.76 10.4 
 3  16.3  3.23  2.99 11.5   9.22
 4  16.7  6.28  2.99 11.2  10.4 
 5  18.1  5.65  2.99 11.2  10.4 
 6  18.1  6.28  2.99 11.2  10.4 
 7  19.1  6.28  2.25 11.2   9.22
 8  18.1  5.65  2.99 11.2  10.4 
 9  18.1  5.65  2.99 11.2  10.4 
10  19.1  6.28  2.25 11.2   9.22
# ℹ 93 more rows
…
