Modelling of COVID-19 distribution in Nigeria | Data modelling to develop ...
…
BREAKS <- c(70, 131, 173, 228, 274, 326)

z.s           <- readRDS("data/zs.RDS")
cumper        <- readRDS("data/cumper.RDS")
niz           <- readRDS("data/niz.RDS")
States_county <- read_excel("data/States.xlsx")

Like mentioned earlier, some tricks were used to obtain the daily data from the website of NCDC. The NCDC uploads the cumulative data on daily basis, so each day, the data were scrapped and then the daily incidence were recorded. For example, below is the data scrapped from the website on March 15, 2021.

Deaths <- readr::read_csv("data/today.csv")
names(Deaths) <- c("Region", "Confirmed", "Active", "Recovered", "Deaths")
DDmap <- Deaths
Deaths

## # A tibble: 37 × 5
##    Region      Confirmed Active Recovered Deaths
##    <chr>           <dbl>  <dbl>     <dbl>  <dbl>
##  1 Abia             1629     44      1564     21
##  2 Adamawa           942    641       270     31
##  3 Akwa Ibom        1707    483      1210     14
##  4 Anambra          1909     64      1826     19
##  5 Bauchi           1482    198      1267     17
##  6 Bayelsa           828     37       765     26
##  7 Benue            1188    575       591     22
##  8 Borno            1321     83      1200     38
##  9 Cross River       344     14       313     17
## 10 Delta            2593    780      1744     69
## # … with 27 more rows
…
